{
  "extends": ["../tslint.json"],
  "rules": {
    "jsx-ban-elements": {
      "options": [
          ["TouchableOpacity", "Use ClickableOpacity instead."],
          ["TouchableHighlight", "Use ClickableHighlight instead."],
          ["TouchableWithoutFeedback", "Use ClickableWithoutFeedback instead."],
          ["TouchableNativeFeedback", "Use ClickableWithoutFeedback instead."]
      ]
    }
  }
}
