// Jest Snapshot v1, https://goo.gl/fbAQLP

exports[`Spacer Snapshot Tests Spacer renders horizontal space correctly 1`] = `
<View
  style={
    Object {
      "flexDirection": "row",
    }
  }
>
  <Text
    accessibilityLabel="myproject-ucl.text"
    style={
      Array [
        Object {
          "fontFamily": "Lato-Bold",
          "fontSize": 16,
          "fontWeight": "bold",
          "lineHeight": 20,
        },
        Object {
          "color": "#121212",
          "textAlign": undefined,
          "textDecorationLine": undefined,
        },
      ]
    }
    testID="myproject-ucl.text"
  >
    Example String 1
  </Text>
  <View
    style={
      Object {
        "height": undefined,
        "width": 8,
      }
    }
  />
  <Text
    accessibilityLabel="myproject-ucl.text"
    style={
      Array [
        Object {
          "fontFamily": "Lato-Bold",
          "fontSize": 16,
          "fontWeight": "bold",
          "lineHeight": 20,
        },
        Object {
          "color": "#121212",
          "textAlign": undefined,
          "textDecorationLine": undefined,
        },
      ]
    }
    testID="myproject-ucl.text"
  >
    Example String 2
  </Text>
</View>
`;

exports[`Spacer Snapshot Tests Spacer renders vertical space correctly 1`] = `
<View
  style={
    Object {
      "flexDirection": "column",
    }
  }
>
  <Text
    accessibilityLabel="myproject-ucl.text"
    style={
      Array [
        Object {
          "fontFamily": "Lato-Bold",
          "fontSize": 16,
          "fontWeight": "bold",
          "lineHeight": 20,
        },
        Object {
          "color": "#121212",
          "textAlign": undefined,
          "textDecorationLine": undefined,
        },
      ]
    }
    testID="myproject-ucl.text"
  >
    Example String 1
  </Text>
  <View
    style={
      Object {
        "height": 8,
        "width": undefined,
      }
    }
  />
  <Text
    accessibilityLabel="myproject-ucl.text"
    style={
      Array [
        Object {
          "fontFamily": "Lato-Bold",
          "fontSize": 16,
          "fontWeight": "bold",
          "lineHeight": 20,
        },
        Object {
          "color": "#121212",
          "textAlign": undefined,
          "textDecorationLine": undefined,
        },
      ]
    }
    testID="myproject-ucl.text"
  >
    Example String 2
  </Text>
</View>
`;
