<svg width="24" height="24"  viewBox="0 0 24 24">
    <path fill="#428050" d="M8.281 12.822l5.383 6.258c.437.428.45 1.135.027 1.579a1.09 1.09 0 0 1-1.557.028l-6.798-7.758A1.12 1.12 0 0 1 5 12.145a1.122 1.122 0 0 1 .31-.795l6.796-8.009a1.09 1.09 0 0 1 1.558-.028c.437.429.45 1.136.027 1.58l-5.42 6.473a1.125 1.125 0 0 0 .01 1.456z"/>
</svg>
